Place,Name,Sex,Event,Division,WeightClassKg,Equipment,BirthYear,State,BodyweightKg,Squat1Kg,Squat2Kg,Squat3Kg,Best3SquatKg,Bench1Kg,Bench2Kg,Bench3Kg,Best3BenchKg,Deadlift1Kg,Deadlift2Kg,Deadlift3Kg,Best3DeadliftKg,TotalKg
1,Amy Horst,F,B,FR-M1a,72,Raw,1977,CO,69.30,,,,,70,-72.5,,70.0,,,,,70
1,Brandon Heflin,M,B,MR-Jr,93,Raw,1994,CO,91.10,,,,,142.5,-160,-160,142.5,,,,,142.5
1,Troy Nunley,M,B,MR-M1a,66,Raw,1974,CO,65.90,,,,,110,-122.5,-122.5,110.0,,,,,110
1,Troy Nunley,M,B,MR-O,66,Raw,1974,CO,65.90,,,,,110,-122.5,-122.5,110.0,,,,,110
1,Hayden Piz,M,B,MR-T1,83,Raw,2003,CO,78.40,,,,,-70,70,-72.5,70.0,,,,,70
1,Byron Boyer,M,B,MR-T2,83,Raw,2001,CO,75.00,,,,,-97.5,97.5,102.5,102.5,,,,,102.5
1,Riley Miller #1,F,SBD,FR-Jr,63,Raw,1994,CO,61.00,75,-87.5,90,90.0,37.5,42.5,47.5,47.5,90,105,117.5,117.5,255
1,Ellen Gostling,F,SBD,FR-Jr,84,Raw,1997,CO,78.70,95,102.5,112.5,112.5,52.5,57.5,-62.5,57.5,125,132.5,140,140.0,310
2,Chenying Wang,F,SBD,FR-Jr,84,Raw,1994,CO,83.00,80,87.5,90,90.0,32.5,37.5,-42.5,37.5,80,87.5,-100,87.5,215
1,Amy Noraka,F,SBD,FR-M1a,72,Raw,1976,CO,68.50,115,125,127.5,127.5,75,80,82.5,82.5,125,135,140,140.0,350
1,Maureen Finke,F,SBD,FR-M1a,84,Raw,1976,CO,82.10,-80,80,90,90.0,52.5,55,-57.5,55.0,87.5,97.5,102.5,102.5,247.5
1,Kellee Rassau,F,SBD,FR-M1b,84+,Raw,1971,CO,89.30,77.5,85,100,100.0,52.5,60,62.5,62.5,122.5,135,145,145.0,307.5
1,Diana Fisler,F,SBD,FR-M2,52,Raw,1964,CO,52.00,52.5,62.5,65,65.0,45,47.5,-52.5,47.5,80,90,95,95.0,207.5
1,Kristen Tarrin,F,SBD,FR-M2a,84+,Raw,1967,CO,112.40,90,102.5,105,105.0,57.5,-62.5,,57.5,120,-130,-130,120.0,282.5
DQ,Jill McLaughlin,F,SBD,FR-M3b,84,Raw,1952,CO,79.50,-85,-90,-90,,57.5,60,-62.5,60.0,115,-125,125,125.0,
1,Varvara Lytkina,F,SBD,FR-O,47,Raw,1984,CO,46.90,90,-95,95,95.0,40,42.5,-45,42.5,120,125,-130,125.0,262.5
1,Erica Caasi,F,SBD,FR-O,52,Raw,1987,MD,50.10,75,85,-90,85.0,50,52.5,-57.5,52.5,120,127.5,-137.5,127.5,265
2,Savana Armijo,F,SBD,FR-O,52,Raw,1989,CO,51.00,65,-75,-80,65.0,40,42.5,-45,42.5,102.5,110,117.5,117.5,225
1,Sidney Afshari,F,SBD,FR-O,57,Raw,1993,CO,56.90,77.5,82.5,92.5,92.5,37.5,-42.5,-47.5,37.5,102.5,115,120,120.0,250
2,Agatha Machota Gawron,F,SBD,FR-O,57,Raw,1980,CO,56.00,-72.5,72.5,77.5,77.5,42.5,47.5,-50,47.5,92.5,100,112.5,112.5,237.5
DQ,Mallory Smith,F,SBD,FR-O,63,Raw,1987,SD,60.90,110,,,110.0,-75,-75,-75,,,,,,
1,Amy Noraka,F,SBD,FR-O,72,Raw,1976,CO,68.50,115,125,127.5,127.5,75,80,82.5,82.5,125,135,140,140.0,350
2,Shari Meth,F,SBD,FR-O,72,Raw,1990,FL,67.70,115,130,-137.5,130.0,55,-62.5,62.5,62.5,120,125,137.5,137.5,330
3,Elizabeth Schaffer,F,SBD,FR-O,72,Raw,1988,CO,68.90,107.5,-115,115,115.0,60,-65,-65,60.0,122.5,132.5,137.5,137.5,312.5
4,Emily Westfall,F,SBD,FR-O,72,Raw,1989,CO,65.10,77.5,87.5,95,95.0,55,-60,-60,55.0,115,127.5,135,135.0,285
5,Megan Carey,F,SBD,FR-O,72,Raw,1980,CO,65.90,72.5,82.5,-90,82.5,52.5,55,57.5,57.5,120,125,127.5,127.5,267.5
6,Lindsey Dazzo,F,SBD,FR-O,72,Raw,1992,CO,65.80,70,77.5,82.5,82.5,42.5,-47.5,47.5,47.5,110,120,-130,120.0,250
7,Kaelina Babb,F,SBD,FR-O,72,Raw,1992,CO,68.00,77.5,85,-95,85.0,45,-47.5,-50,45.0,95,102.5,107.5,107.5,237.5
1,Renae Allemann,F,SBD,FR-O,84,Raw,1990,CO,82.80,137.5,-147.5,147.5,147.5,62.5,67.5,-70,67.5,152.5,-165,-165,152.5,367.5
1,Molly Gill #2,F,SBD,FR-O,84+,Raw,1990,CO,86.50,102.5,112.5,120,120.0,62.5,67.5,-72.5,67.5,112.5,-120,120,120.0,307.5
1,Savannah Piceno,F,SBD,FR-T1,52,Raw,2003,CO,50.80,65,70,-72.5,70.0,35,-40,-40,35.0,75,80,-90,80.0,185
1,Jose Ramirez #7,M,SBD,M-O,120,Single-ply,1990,CO,119.30,297.5,312.5,-325,312.5,247.5,-257.5,257.5,257.5,240,250,-262.5,250.0,820
2,Dan Gresh,M,SBD,M-O,120,Single-ply,1989,CO,106.90,275,285,-300,285.0,-175,175,-180,175.0,250,265,272.5,272.5,732.5
1,Sean Patterson,M,SBD,MR-Jr,74,Raw,1997,CO,71.10,185,195,-205,195.0,87.5,-95,100,100.0,195,207.5,-215,207.5,502.5
1,Gabriel Faber,M,SBD,MR-Jr,83,Raw,1995,CO,78.20,177.5,192.5,207.5,207.5,112.5,120,127.5,127.5,220,240,-260,240.0,575
2,Caleb Stombaugh,M,SBD,MR-Jr,83,Raw,1994,CO,80.80,-165,172.5,-180,172.5,112.5,120,-127.5,120.0,210,217.5,-222.5,217.5,510
3,Scott Witcher,M,SBD,MR-Jr,83,Raw,1995,CO,79.00,142.5,150,157.5,157.5,105,112.5,-117.5,112.5,180,190,-195,190.0,460
4,Cordova Jesus Apodaca,M,SBD,MR-Jr,83,Raw,1997,CO,76.00,125,130,-150,130.0,77.5,90,97.5,97.5,165,182.5,-190,182.5,410
5,Guangde Cao,M,SBD,MR-Jr,83,Raw,1996,CO,82.00,-125,125,145,145.0,75,82.5,-95,82.5,102.5,130,145,145.0,372.5
1,Liang Zhang,M,SBD,MR-Jr,93,Raw,1994,CO,92.70,175,187.5,-197.5,187.5,115,125,130,130.0,165,185,202.5,202.5,520
2,Ryan Stewart #8,M,SBD,MR-Jr,93,Raw,1997,CO,91.70,155,160,167.5,167.5,102.5,-105,,102.5,200,210,225,225.0,495
3,Andrew Campbell,M,SBD,MR-Jr,93,Raw,1995,CO,88.00,160,-172.5,-172.5,160.0,115,120,-122.5,120.0,175,182.5,190,190.0,470
4,Christian Knobloch,M,SBD,MR-Jr,93,Raw,1997,CO,92.80,132.5,147.5,165,165.0,87.5,92.5,-100,92.5,170,180,190,190.0,447.5
1,Troy Fossceco,M,SBD,MR-Jr,105,Raw,1994,CO,101.70,167.5,175,182.5,182.5,-147.5,155,-157.5,155.0,242.5,255,260,260.0,597.5
2,Shane Cohan,M,SBD,MR-Jr,105,Raw,1995,CO,99.20,172.5,-187.5,-200,172.5,145,157.5,-167.5,157.5,240,257.5,-262.5,257.5,587.5
3,Zhongjie Ruan,M,SBD,MR-Jr,105,Raw,1997,CO,104.10,170,182.5,-195,182.5,92.5,97.5,102.5,102.5,200,222.5,235,235.0,520
1,Mike Sutton,M,SBD,MR-Jr,120,Raw,1994,CO,115.80,240,-247.5,-247.5,240.0,150,155,-157.5,155.0,-265,270,280,280.0,675
1,Troy Nunley,M,SBD,MR-M1a,66,Raw,1974,CO,65.90,127.5,142.5,,142.5,110,-122.5,-122.5,110.0,167.5,,,167.5,420
1,Chris Carter #1,M,SBD,MR-M1a,83,Raw,1977,CO,79.40,142.5,150,-160,150.0,95,100,102.5,102.5,175,182.5,-190,182.5,435
1,Bryan Beeby,M,SBD,MR-M1a,120,Raw,1975,CO,114.90,172.5,182.5,-197.5,182.5,162.5,172.5,-177.5,172.5,-210,220,227.5,227.5,582.5
1,Albert Lopez,M,SBD,MR-M2a,105,Raw,1967,CO,99.50,215,227.5,-230,227.5,145,152.5,157.5,157.5,240,262.5,-272.5,262.5,647.5
1,Lou Fossceco,M,SBD,MR-M2a,120,Raw,1964,CO,117.60,175,182.5,190,190.0,170,-175,-175,170.0,207.5,215,222.5,222.5,582.5
1,Troy Nunley,M,SBD,MR-O,66,Raw,1974,CO,65.90,127.5,142.5,,142.5,110,-122.5,-122.5,110.0,167.5,,,167.5,420
1,Geoff Joe,M,SBD,MR-O,74,Raw,1990,CO,73.60,177.5,-185,185,185.0,102.5,107.5,-112.5,107.5,217.5,232.5,-242.5,232.5,525
2,Cameron Jilovec,M,SBD,MR-O,74,Raw,1989,CO,73.30,145,165,170,170.0,95,100,105,105.0,165,185,190,190.0,465
1,Jared Scott #1,M,SBD,MR-O,83,Raw,1990,CO,78.90,192.5,202.5,210,210.0,122.5,130,-137.5,130.0,212.5,225,230,230.0,570
2,Richard Falls,M,SBD,MR-O,83,Raw,1983,FL,82.50,182.5,195,-210,195.0,135,-145,-145,135.0,210,227.5,-237.5,227.5,557.5
3,Mike Mielke,M,SBD,MR-O,83,Raw,1989,CO,80.70,170,-180,-192.5,170.0,92.5,102.5,-112.5,102.5,170,185,200,200.0,472.5
4,Scott Witcher,M,SBD,MR-O,83,Raw,1995,CO,79.00,142.5,150,157.5,157.5,105,112.5,-117.5,112.5,180,190,-195,190.0,460
5,Jason Wood,M,SBD,MR-O,83,Raw,1979,CO,82.50,142.5,147.5,152.5,152.5,95,97.5,100,100.0,165,170,175,175.0,427.5
1,Albert Carlton,M,SBD,MR-O,93,Raw,1988,CO,92.00,220,232.5,240,240.0,137.5,145,150,150.0,237.5,250,265,265.0,655
2,Stephen Zagata,M,SBD,MR-O,93,Raw,1991,CO,88.30,-240,-240,240,240.0,145,147.5,-152.5,147.5,265,-275,-275,265.0,652.5
3,George Woolley,M,SBD,MR-O,93,Raw,1983,CO,92.00,180,192.5,197.5,197.5,125,132.5,-137.5,132.5,177.5,190,200,200.0,530
4,Jason Spitalnick,M,SBD,MR-O,93,Raw,1980,CO,90.50,-137.5,145,155,155.0,92.5,-97.5,102.5,102.5,177.5,195,202.5,202.5,460
5,Joshua Steinbeck,M,SBD,MR-O,93,Raw,1989,CO,91.40,145,155,165,165.0,87.5,97.5,102.5,102.5,160,175,192.5,192.5,460
1,Wesley Brand,M,SBD,MR-O,105,Raw,1992,CO,97.20,192.5,205,215,215.0,92.5,100,107.5,107.5,200,215,-227.5,215.0,537.5
1,Mike Sutton,M,SBD,MR-O,120,Raw,1994,CO,115.80,240,-247.5,-247.5,240.0,150,155,-157.5,155.0,-265,270,280,280.0,675
1,Logan Gaudreau,M,SBD,MR-Y2,40,Raw,2007,CO,38.60,57.5,62.5,65,65.0,22.5,-27.5,27.5,27.5,62.5,72.5,75,75.0,167.5
1,Royce Schultz,M,SBD,M-T3,74,Single-ply,1998,CO,72.70,170,-180,185,185.0,110,-115,-115,110.0,175,185,195,195.0,490
