Division,WeightClassKg,Place,Name,Team,BodyweightKg,Best3SquatKg,Best3BenchKg,Best3DeadliftKg,TotalKg,Equipment,Event,Sex,BirthDate
Boys,51.71,1,Andrew Gonzales,Waco,51.71,97.52,45.36,104.33,247.21,Single-ply,SBD,M,
Boys,51.71,DQ,Jesus Hernandez,Bryan Rudder,51.71,108.86,,,,Single-ply,SBD,M,
Boys,55.79,1,Blake Zalobny,Caldwell,53.52,86.18,54.43,115.67,256.28,Single-ply,SBD,M,
Boys,59.87,1,Derek Lopez,Somerville,58.06,111.13,72.57,127.01,310.71,Single-ply,SBD,M,
Boys,59.87,2,Stuart Hay,Bryan,56.25,108.86,68.04,108.86,285.76,Single-ply,SBD,M,
Boys,67.13,1,Ivan Granados,Caldwell,62.14,181.44,90.72,195.04,467.2,Single-ply,SBD,M,
Boys,67.13,2,Quintarius Fisher,Waco,65.32,163.29,79.38,163.29,405.97,Single-ply,SBD,M,
Boys,67.13,DQ,Jace Aly,Caldwell,67.13,165.56,106.59,,,Single-ply,SBD,M,
Boys,82.1,1,Justin Balcar,Caldwell,80.74,190.51,127.01,183.7,501.22,Single-ply,SBD,M,
Boys,82.1,2,Oscar Barreto,Waco,78.47,127.01,86.18,158.76,371.95,Single-ply,SBD,M,
Boys,89.81,1,Ivan Diaz,Waco,88.45,240.4,183.7,204.12,628.23,Single-ply,SBD,M,
Boys,89.81,2,Caleb Hanks,Somerville,88,195.04,113.4,204.12,512.56,Single-ply,SBD,M,
Boys,99.79,1,Payton Sprouse,Somerville,99.34,197.31,111.13,204.12,512.56,Single-ply,SBD,M,
Boys,99.79,2,Jim Jackson,Caldwell,99.79,188.24,124.74,185.97,498.95,Single-ply,SBD,M,
Boys,109.77,1,Brian Lester,Bryan,107.05,272.16,163.29,215.46,650.91,Single-ply,SBD,M,
Boys,109.77,2,Calvin Simmons,Huntsville,109.41,260.82,129.27,256.28,646.37,Single-ply,SBD,M,
Boys,109.77,3,Micah Moore,Waco,104.33,213.19,136.08,213.19,562.45,Single-ply,SBD,M,
Boys,109.77,4,Javon Bryant,Waco,107.05,158.76,113.4,170.1,442.25,Single-ply,SBD,M,
Boys,109.77,DQ,Connor McQueen,Bryan Rudder,108.86,249.48,149.69,,,Single-ply,SBD,M,
Boys,124.74,1,Lyndon Williams,Bryan Rudder,121.11,238.14,188.24,254.01,680.39,Single-ply,SBD,M,
Boys,124.74,2,Rashawn Conner,Waco,119.75,226.8,106.59,195.04,528.44,Single-ply,SBD,M,
Boys,124.74,3,Deandre Smith,Waco,124.28,213.19,102.06,192.78,508.02,Single-ply,SBD,M,
Boys,124.74,4,Marcus Wascom,Bryan,124.74,195.04,127.01,172.37,494.42,Single-ply,SBD,M,
Boys,124.74,5,Luke Grant,Waco,122.92,176.9,117.93,176.9,471.74,Single-ply,SBD,M,
Boys,124.74,6,Aiden Mosivais,Bryan,116.12,115.67,102.06,147.42,365.14,Single-ply,SBD,M,
Boys,124.74,DQ,Harvey Roberts-Conley,Bryan Rudder,124.28,265.35,170.1,,,Single-ply,SBD,M,
Boys,139.71,DQ,Jason Batiste,Bryan Rudder,134.72,272.16,,,,Single-ply,SBD,M,
Boys,139.71+,1,Garrett Tittle,Caldwell,140.11,297.1,190.51,235.87,723.48,Single-ply,SBD,M,
Boys,139.71+,2,Isacc Ibarra,Bryan,163.29,249.48,158.76,199.58,607.81,Single-ply,SBD,M,
Boys,139.71+,3,Jesus Espinoza,Somerville,154.67,170.1,111.13,183.7,464.93,Single-ply,SBD,M,
