Place,Name,Sex,BirthDate,Age,State,Equipment,Division,BodyweightKg,WeightClassKg,Squat1Kg,Squat2Kg,Squat3Kg,Best3SquatKg,Bench1Kg,Bench2Kg,Bench3Kg,Best3BenchKg,Deadlift1Kg,Deadlift2Kg,Deadlift3Kg,Best3DeadliftKg,TotalKg,Event
1,Kassidy Metzger,F,,20,NY,Raw,Amateur Open,74.4,75,-110,115,127.5,127.5,55,60,-65,60,137.5,147.5,157.5,157.5,345,SBD
1,Teresha Miller,F,,37,NY,Raw,Amateur Submasters 33-39,74.48,75,100,-105,-105,100,55,60,-62.5,60,145,150,157.5,157.5,317.5,SBD
NS,Katherine Estep,F,1990-11-13,31,NY,Raw,Amateur Open,,,,,,,,,,,,,,,,SBD
1,Tiffanie Hernandez,F,,27,NY,Raw,Amateur Open,65.23,67.5,92.5,97.5,102.5,102.5,72.5,75,-80,75,132.5,142.5,147.5,147.5,325,SBD
2,Laura Hernandez,F,1984-11-30,37,NY,Raw,Amateur Submasters 33-39,69.67,75,97.5,105,-110,105,45,50,-52.5,50,97.5,105,112.5,112.5,267.5,SBD
1,Michelle Kahn,F,,47,NY,Raw,Amateur Masters 45-49,73.75,75,,,,,42.5,47.5,52.5,52.5,,,,,52.5,B
1,Justina Weyant,F,,31,NY,Raw,Amateur Open,118.57,110+,,,,,,,,,-165,165,-177.5,165,165,D
1,Robert Paxson,M,,31,NJ,Unlimited,Police Pro Open,81.37,82.5,322.5,335,352.5,352.5,277.5,290,-307.5,290,230,245,255,255,897.5,SBD
1,John Maimone,M,,27,NJ,Unlimited,Police Pro Open,98.9,100,-317.5,317.5,327.5,327.5,252.5,257.5,265,265,242.5,260,272.5,272.5,865,SBD
NS,Gavin Holroyd,M,,23,NY,Raw,Pro Juniors 20-23,,,,,,,,,,,,,,,,SBD
1,Robert Stevens,M,1961-09-05,60,NY,Raw,Amateur Masters 60-64,73.94,75,155,170,182.5,182.5,115,127.5,-135,127.5,185,202.5,-217.5,202.5,512.5,SBD
1,Edward Joseph,M,,26,NY,Raw,Amateur Open,58.42,60,105,115,122.5,122.5,100,107.5,-110,107.5,152.5,165,175,175,405,SBD
2,Dani Wokanick,F,,33,NY,Raw,Amateur Open,62.6,67.5,65,70,75,75,40,42.5,-47.5,42.5,75,80,85,85,202.5,SBD
2,Michael Waters,M,,32,NY,Raw,Amateur Open,81.92,82.5,155,162.5,167.5,167.5,107.5,-115,115,115,180,185,190,190,472.5,SBD
1,Artie Miller,M,,77,NY,Raw,Amateur Open,89.81,90,100,-105,-105,100,75,77.5,80,80,142.5,150,-155,150,330,SBD
1,Jakob Hill,M,1996-11-21,25,NY,Raw,Amateur Open,93,100,235,247.5,-255,247.5,140,-147.5,-152.5,140,247.5,265,-272.5,265,652.5,SBD
2,Richard Kompf,M,,28,NY,Raw,Amateur Open,99.34,100,170,177.5,185,185,115,120,122.5,122.5,235,252.5,-257.5,252.5,560,SBD
1,Pat McNamara,M,,31,NY,Wraps,Amateur Open,144.6,140+,320,340,365,365,62.5,-65,-65,62.5,275,295,317.5,317.5,745,SBD
1,Joshua von Scheiner,M,,39,NY,Raw,Amateur Submasters 33-39,83.55,90,147.5,155,160,160,97.5,102.5,107.5,107.5,185,192.5,200,200,467.5,SBD
1,Brian King,M,,19,NY,Raw,Amateur Teen 18-19,81.2,82.5,125,137.5,145,145,97.5,102.5,107.5,107.5,192.5,-207.5,207.5,207.5,460,SBD
1,Jeovanny Morales,M,,18,NY,Raw,Amateur Teen 18-19,83.4,90,180,185,190,190,-107.5,107.5,-112.5,107.5,227.5,232.5,-237.5,232.5,530,SBD
NS,Jamaal Spence,M,,,NY,Raw,Amateur Youth,,,,,,,,,,,,,,,,SBD
1,Alex DiGiovanna,M,,,NY,Raw,Amateur Youth,73.57,75,137.5,145,155,155,110,115,117.5,117.5,182.5,190,197.5,197.5,470,SBD
1,Joe Del Rossi,M,,23,NY,Raw,Amateur Juniors 20-23,96.52,100,-170,170,182.5,182.5,125,132.5,-137.5,132.5,192.5,215,220,220,535,SBD
1,Josh Druz,M,1998-06-12,,NY,Raw,Amateur Juniors 20-23,106.96,110,227.5,242.5,-252.5,242.5,140,147.5,-152.5,147.5,255,-277.5,-277.5,255,645,SBD
1,Lawrence Marquez,M,,30,NY,Raw,Amateur Open,73.57,75,185,197.5,210,210,117.5,125,135,135,220,237.5,247.5,247.5,592.5,SBD
1,Chris Diaz,M,,23,NY,Raw,Amateur Open,78.9,82.5,165,177.5,192.5,192.5,105,-110,112.5,112.5,-220,230,237.5,237.5,542.5,SBD
3,Vincent Couvignou,M,,31,NY,Raw,Amateur Open,98.4,100,187.5,202.5,210,210,80,87.5,-90,87.5,210,225,245,245,542.5,SBD
1,Josh Druz,M,1998-06-12,,NY,Raw,Amateur Open,106.96,110,227.5,242.5,-252.5,242.5,140,147.5,-152.5,147.5,255,-277.5,-277.5,255,645,SBD
1,Tim Starkweather,M,,23,NY,Raw,Amateur Open,115.67,125,247.5,265,270,270,132.5,142.5,147.5,147.5,250,275,287.5,287.5,705,SBD
1,Raymond Phillips,M,1985-07-28,36,NY,Wraps,Pro Open,74.57,75,-280,285,-295,285,155,-160,-160,155,285,307.5,-322.5,307.5,747.5,SBD
1,Vincent Garone,M,,23,NY,Wraps,Pro Open,105.7,110,265,285,-295,285,192.5,205,-215,205,247.5,265,-292.5,265,755,SBD
1,Thomas Ciringione,M,,28,NY,Wraps,Pro Open,120.02,125,317.5,342.5,357.5,357.5,202.5,215,-225,215,305,335,-345,335,907.5,SBD
1,Jack Miller,M,2007-08-17,14,NY,Raw,Amateur Teen 14-15,59.06,60,-70,-70,70,70,40,42.5,47.5,47.5,85,92.5,102.5,102.5,220,SBD
1,Alex Luong,M,,16,NY,Raw,Amateur Teen 16-17,66.04,67.5,165,175,-185,175,-95,95,-105,95,165,175,185,185,455,SBD
1,Jason Cruz,M,,17,NY,Raw,Amateur Teen 16-17,82.28,82.5,160,170,-180,170,107.5,115,120,120,215,225,235,235,525,SBD
1,Christian Navarro #6,M,,19,NY,Raw,Amateur Teen 18-19,71.8,75,147.5,162.5,172.5,172.5,-97.5,100,105,105,182.5,197.5,207.5,207.5,485,SBD
1,Fernando Sanchez,M,,18,NY,Raw,Amateur Teen 18-19,109.04,110,210,220,-227.5,220,-130,130,-135,130,207.5,220,232.5,232.5,582.5,SBD
1,Michael Galiano,M,,20,CT,Single-ply,Pro Juniors 20-23,87.54,90,-235,-235,235,235,130,137.5,-140,137.5,215,240,-242.5,240,612.5,SBD
1,Tom LaBarbera,M,,51,NY,Raw,Pro Masters 50-54,108.77,110,,,,,132.5,147.5,160,160,,,,,160,B
1,Artie Miller,M,,77,NY,Raw,Amateur Open,89.81,90,,,,,,,,,142.5,150,-155,150,150,D
