Division,WeightClassKg,Place,Name,Team,BodyweightKg,Best3SquatKg,Best3BenchKg,Best3DeadliftKg,TotalKg,Equipment,Event,Sex,BirthDate
Boys,55.79,1,Col Stevens,Big Sandy Harmony,55.16,151.95,90.72,147.42,390.09,Single-ply,SBD,M,
Boys,59.87,DQ,Mason Windham,Redwater,58.97,,,,,Single-ply,SBD,M,
Boys,67.13,1,Jaxson Minter,Redwater,66.54,136.08,90.72,145.15,371.95,Single-ply,SBD,M,
Boys,74.84,1,David McKeever,Redwater,70.31,183.7,108.86,170.1,462.66,Single-ply,SBD,M,
Boys,74.84,DQ,Logan Brock,Redwater,74.84,,,,,Single-ply,SBD,M,
Boys,82.1,1,Lathan Morgan,Redwater,82.1,174.63,138.35,190.51,503.49,Single-ply,SBD,M,
Boys,82.1,DQ,Andrew White,Redwater,80.74,,,,,Single-ply,SBD,M,
Boys,89.81,1,Brayden DeGoede,Big Sandy Harmony,86.45,151.95,106.59,154.22,412.77,Single-ply,SBD,M,
Boys,89.81,2,Brett McNeel,Big Sandy Harmony,85.73,142.88,83.91,147.42,374.21,Single-ply,SBD,M,
Boys,99.79,1,Easton Minter,Redwater,92.99,226.8,127.01,192.78,546.58,Single-ply,SBD,M,
Boys,99.79,2,Jared Guerrero,Big Sandy Harmony,89.99,149.69,92.99,115.67,358.34,Single-ply,SBD,M,
Boys,99.79,2,Cade Pipes,Redwater,93.44,231.33,117.93,190.51,539.77,Single-ply,SBD,M,
Boys,109.77,1,Jawad Hussien,Redwater,108.86,244.94,151.95,215.46,612.35,Single-ply,SBD,M,
Boys,109.77,2,Andrew Mullins,Big Sandy Harmony,107.23,199.58,131.54,181.44,512.56,Single-ply,SBD,M,
Boys,109.77,3,Michael Sanchez,Big Sandy Harmony,108.41,201.85,113.4,174.63,489.88,Single-ply,SBD,M,
Boys,109.77,4,John Owens,Redwater,109.41,195.04,124.74,154.22,474,Single-ply,SBD,M,
Boys,139.71,1,Kayden Ballard,Big Sandy Harmony,137.17,197.31,131.54,174.63,503.49,Single-ply,SBD,M,
Boys,139.71+,1,Spencer Murphy,Big Sandy Harmony,180.53,172.37,102.06,142.88,417.3,Single-ply,SBD,M,
Boys,,NS,Luis Lozano,Big Sandy Harmony,,244.94,124.74,,,Single-ply,SBD,M,
