Name,Sex,Equipment,Country,Event,BodyweightKg,WeightClassKg,Division,Squat1Kg,Squat2Kg,Squat3Kg,Best3SquatKg,Squat4Kg,Bench1Kg,Bench2Kg,Bench3Kg,Best3BenchKg,Bench4Kg,Deadlift1Kg,Deadlift2Kg,Deadlift3Kg,Best3DeadliftKg,Deadlift4Kg,TotalKg,Place
Ariel Bulmash,F,Wraps,USA,SBD,57.6,60,Teen 16-17,107.5,112.5,-120,112.5,,65,72.5,-77.5,72.5,,132.5,-142.5,,132.5,,317.5,1
Marilia Couhinto,F,Wraps,Brazil,SBD,59.9,60,Open,155,165,170,170,175,95,100,-105,100,,160,170,-180,170,,440,1
Ariel Bulmash,F,Wraps,USA,SBD,57.6,60,Open,107.5,112.5,-120,112.5,,65,72.5,-77.5,72.5,,132.5,-142.5,,132.5,,317.5,2
Annia Schwake,F,Wraps,USA,SBD,67.5,67.5,Submasters 35-39,122.5,132.5,-137.5,132.5,,57.5,62.5,65,65,67.5,125,135,-140,135,,332.5,1
Ann Salter,F,Wraps,USA,SBD,63.7,67.5,Masters 55-59,80,87.5,-97.5,87.5,,42.5,47.5,50,50,,95,105,115,115,,252.5,1
Daisy Kuischmann,F,Wraps,Colombia,SBD,61.4,67.5,Open,125,135,-137.5,135,137.5,55,-62.5,65,65,,120,132.5,148,148,,348,1
Vanessa Gale,F,Wraps,USA,SBD,69.7,75,Juniors 20-23,117.5,130,137.5,137.5,-140,-52.5,52.5,60,60,-65,132.5,142.5,147.5,147.5,150,345,1
Callerina Key,F,Wraps,USA,SBD,70,75,Open,125,140,-147.5,140,,62.5,67.5,-72.5,67.5,,150,165,-172.5,165,,372.5,1
Megan Salyars,F,Wraps,USA,SBD,82.5,82.5,Teen 18-19,142.5,157.5,165,165,170,60,65,67.5,67.5,,140,150,-160,150,,382.5,1
Kylee Barnes,F,Wraps,USA,SBD,90,90,Teen 18-19,25,-87.5,,25,,55,62.5,,62.5,,100,-143.5,144,144,,231.5,1
Anna Khudayarov,F,Wraps,Finland,SBD,83.2,90,Juniors 20-23,120,-132.5,132.5,132.5,,87.5,92.5,-95,92.5,,130,140,145,145,,370,1
Anna Khudayarov,F,Wraps,Finland,SBD,83.2,90,Open,120,-132.5,132.5,132.5,,87.5,92.5,-95,92.5,,130,140,145,145,147.5,370,1
Elease Crumedy,F,Wraps,USA,SBD,113,90+,Masters 40-44,142.5,-160,-167.5,142.5,,50,52.5,60,60,,145,-165,-165,145,,347.5,1
Louis Hoover,M,Wraps,USA,SBD,60,60,Teen 13-15,70,-92.5,92.5,92.5,-102.5,60,70,-80,70,,100,117.5,137.5,137.5,,300,1
Scott Bowman,M,Wraps,USA,SBD,74.8,75,Teen 16-17,62.5,,,62.5,,-62.5,62.5,,62.5,,182.5,210,-227.5,210,,335,1
Jason Samper,M,Wraps,Colombia,SBD,86.7,90,Teen 18-19,240,255,-267.5,255,,100,110,115,115,,250,262.5,275,275,,645,1
Sean Evans,M,Wraps,USA,SBD,100,100,Teen 18-19,150,165,-175,165,,122.5,132,137.5,137.5,-140,182.5,-202.5,202.5,202.5,205,505,1
Rudy Wernz,M,Wraps,USA,SBD,105.4,110,Juniors 20-23,182.5,200,215,215,,162.5,182.5,-187.5,182.5,,237.5,257.5,260,260,,657.5,1
Marco Lamprecht,M,Wraps,Germany,SBD,108.3,110,Submasters 35-39,270,290,302.5,302.5,,145,155,-160,155,,260,275,285,285,,742.5,1
Joshua Fuhrer,M,Wraps,USA,SBD,105.5,110,Submasters 35-39,215,227.5,245,245,,155,-172.5,-172.5,155,,272.5,290,-320,290,,690,2
Evans Jacob,M,Wraps,USA,SBD,103.2,110,Teen 13-15,90,110,120,120,-125,65,75,-85,75,,135,152.5,-155,152.5,,347.5,1
Dylan Wagoner,M,Wraps,USA,SBD,122.5,125,Teen 18-19,272.5,292.5,,292.5,,185,200,212.5,212.5,,250,272.5,287.5,287.5,295,792.5,1
Nicholas Skridla,M,Wraps,USA,SBD,73.8,75,Open,57.5,142.5,160,160,,102.5,105,110,110,,227.5,-247.5,,227.5,,497.5,1
Dan Dumitrache,M,Wraps,Romania,SBD,75,75,Open,-300,-300,-300,,,,,,,,,,,,,,DQ
Rene Holguin,M,Wraps,USA,SBD,81,82.5,Open,192.5,215,227.5,227.5,,147.5,165,-172.5,165,,215,227.5,245,245,250.5,637.5,1
Garett Devers,M,Wraps,USA,S,80.7,82.5,Open,210,-227.5,,210,,,,,,,,,,,,210,2
Kevin Eubanks,M,Wraps,USA,SBD,86.8,90,Masters 40-44,182.5,195,-212.5,195,,137.5,142.5,-147.5,142.5,,227.5,235,240,240,-257.5,577.5,1
Danny Overbay,M,Wraps,USA,SBD,88.4,90,Masters 50-54,200,-212.5,-212.5,200,,115,120,122.5,122.5,,192.5,202.5,210,210,,532.5,1
Steve Kylis,M,Wraps,USA,SBD,87.3,90,Masters 55-59,160,170,185,185,205,137.5,142.5,150,150,155,-195,195,,195,,530,1
James Houston,M,Wraps,USA,SBD,89.4,90,Open,182.5,-205,-210,182.5,,125,-137.5,-137.5,125,,152.5,180,187.5,187.5,,495,1
Jason Farrow,M,Wraps,USA,SBD,56,56,Masters 55-59,72.5,82.5,87.5,87.5,,57.5,65,-67.5,65,,112.5,-127.5,,112.5,,265,1
James DiNaso,M,Wraps,USA,SBD,66.2,67.5,Masters 40-44,150,155,-162.5,155,,105,110,112.5,112.5,,155,170,175,175,,442.5,1
Marius Bratu,M,Wraps,Romania,SBD,74.2,75,Open,-150,,,-150,,-100,,,,,-150,,,,,,DQ
Larry Hoover,M,Wraps,USA,SBD,99,100,Masters 40-44,227.5,250,-265,250,,142.5,165,175,175,,227.5,275,-313,275,,700,1
Saul Salazar,M,Wraps,Colombia,SBD,98.5,100,Masters 45-49,160,190,220,220,,150,160,-167.5,160,,180,195,220,220,,600,1
Andy Williamson,M,Wraps,USA,SBD,100,100,Masters 45-49,165,185,190,190,,125,137.5,142.5,142.5,,185,200,210,210,,542.5,2
Jim McCarty,M,Wraps,USA,SBD,97.5,100,Masters 50-54,232.5,252.5,,252.5,,110,132.5,142.5,142.5,,205,227.5,237.5,237.5,,632.5,1
Robert Smith,M,Wraps,USA,SBD,93.5,100,Open,220,245,275,275,,145,167.5,175,175,,220,250,267.5,267.5,,717.5,1
Grant McCaulley,M,Wraps,USA,SBD,100,100,Open,210,220,230,230,,135,142.5,147.5,147.5,,235,260,-272.5,260,,637.5,2
Julio Samper,M,Wraps,Colombia,SBD,108.1,110,Masters 50-54,240,260,282.5,282.5,,125,135,142.5,142.5,,230,250,262.5,262.5,-280,687.5,1
Zahir Khudayarov,M,Wraps,Azerbaijan,SBD,105.3,110,Open,250,300,330,330,,210,230,-242.5,230,,220,260,300,300,330,860,1
Darrell Hoard,M,Wraps,USA,SBD,116.6,125,Masters 40-44,292.5,-310,310,310,,197.5,210,-220,210,,277.5,290,305,305,,825,1
Rocky Tilson,M,Wraps,USA,SBD,111.3,125,Masters 45-49,165,192.5,227.5,227.5,,95,115,120,120,,105,142.5,185,185,,532.5,1
Mauro Spinardi,M,Wraps,Argentina,SBD,120.6,125,Open,360,382.5,395,395,,210,220,-230,220,,315,330,341,341,,956,1
Brandon Scarbrough,M,Wraps,USA,SBD,119.4,125,Open,272.5,290,-312.5,290,,160,-177.5,-177.5,160,,272.5,295,,295,,745,2
Landon Jameson,M,Wraps,USA,SBD,121,125,Open,227.5,-250,-250,227.5,,160,175,187.5,187.5,,227.5,235,-240,235,,650,3
Gordon Varnedoe,M,Wraps,USA,SBD,126.5,140,Masters 70-74,40,60,70,70,,80,90,100,100,,80,110,125,125,,295,1
William Greer,M,Wraps,USA,SBD,148.2,140+,Masters 40-44,-120,120,137.5,137.5,,72.5,87.5,95,95,,110,130,150,150,,382.5,1
David Wagner #3,M,Wraps,USA,SBD,147.4,140+,Masters 60-64,125,140,152.5,152.5,,110,127.5,-132.5,127.5,,182.5,227.5,240,240,,520,1
Dwon Johnson,M,Wraps,USA,SBD,141,140+,Open,352.5,382.5,403,403,,185,205,-215,205,,272.5,295,305,305,,913,1
Tripp Danna,F,Raw,USA,B,50.3,52,Open,,,,,,38,40,-41,40,,,,,,,40,1
Marilia Coutinho,F,Raw,Brazil,B,57.8,60,Open,,,,,,100,105,-107.5,105,,,,,,,105,1
Anna Khudayarov,F,Raw,Finland,B,84.4,90,Juniors 20-23,,,,,,87.5,92.5,-95,92.5,,,,,,,92.5,1
Anna Khudayarov,F,Raw,Finland,B,84.4,90,Open,,,,,,87.5,92.5,-95,92.5,,,,,,,92.5,1
Russ Tripp,M,Raw,USA,B,72.4,75,Masters 40-44,,,,,,125,-127.5,130,130,-132.5,,,,,,130,1
Greg Zarus,M,Raw,USA,B,80.1,82.5,Masters 45-49,,,,,,102.5,-112,-112,102.5,,,,,,,102.5,1
Trey Hague,M,Raw,USA,B,80.5,82.5,Open,,,,,,150,155,157.5,157.5,,,,,,,157.5,1
Greg Zarus,M,Raw,USA,B,80.1,82.5,Open,,,,,,102,-112,-112,102,,,,,,,102,2
R. Garry Glenn,M,Raw,USA,B,89,90,Masters 55-59,,,,,,135,145,-154.5,145,,,,,,,145,1
Robert Khun #2,M,Raw,USA,B,86.6,90,Masters 55-59,,,,,,132,143,-154,143,,,,,,,143,2
Tom Sisk,M,Raw,USA,B,84.4,90,Masters 75-79,,,,,,135,140,-142.5,140,,,,,,,140,1
Kendall Dean,M,Raw,USA,B,93,100,Masters 45-49,,,,,,115,127.5,,127.5,,,,,,,127.5,1
Zack Presley,M,Raw,USA,B,109.1,110,Masters 50-54,,,,,,-162.5,162.5,172.5,172.5,-175,,,,,,172.5,1
McConnell Trey,M,Raw,USA,B,109.1,110,Open,,,,,,-135,-135,135,135,,,,,,,135,1
Jody Seabolt,M,Raw,USA,B,123.6,125,Juniors 20-23,,,,,,186,-190,190,190,-192.5,,,,,,190,1
Tim Moon,M,Raw,USA,B,125,125,Masters 45-49,,,,,,185,208,215,215,-227.5,,,,,,215,1
Chris Foster,M,Raw,USA,B,124.4,125,Masters 45-49,,,,,,182.5,195,-210,195,,,,,,,195,2
Rocky Tilson,M,Raw,USA,B,112.1,125,Masters 45-49,,,,,,97.5,117.5,-122.5,117.5,,,,,,,117.5,3
Sami Huhtala,M,Raw,Finland,B,116.1,125,Open,,,,,,155,170,180,180,,,,,,,180,1
Dustin Minks,M,Raw,USA,B,126.9,140,Submasters 35-39,,,,,,142.5,170,177.5,177.5,182.5,,,,,,177.5,1
Dustin Minks,M,Raw,USA,B,126.9,140,Open,,,,,,142.5,170,177.5,177.5,182.5,,,,,,177.5,1
Uwe Thormann,M,Raw,USA,B,103.5,110,Masters 50-54,,,,,,125,135,145,145,-155,,,,,,145,1
