﻿BDFPF BK - CHAMP BEL  POWERLIFTING   2014
                                                                  BK. Powerlifting Equipped 14 Dec  2014
                                                                                                                                                            BW     SQ     BE     DL    TOT  POINTS
1                                    67,5 KG Dierickx             Liam                                     Planet Fitness   19 T3   65,50   130     105     180                                      415     309,59
1                                    75 KG Vandenbosch  Kevin                                              Planet Fitness   19 T3   74,2    127,5   95      185                                      407,5   273,07
1                                    75 KG Vanhee                 Emmerik                                  Isogym           24 SR   73,9    200     185,5   225                                      610     410,10
2                                    75 KG Vanhaverbeke  Kenny                                             KBBC             30 SR   74,2    130     115     140                                      385     257,99
1                                    82,5 KG Sudarminto   Indra                                            Planet Fitness   23 JR   78,0    305     185     290                                      780     502,94
1                                    90 KG Verbeke                Beny                                     Isogym           49 M2   88,8    245     135     305                                      685     404,22
1                                    100 KG Goethals              Dries                                    KBBC             29 SR   94,2    75      110     150                                      335     191,08
1                                    125 KG Golsteyn              Bart                                     Isogym           49 M2   120,0   170     155     190                                      515     271,41
Nat Record
European Record
World Record
Best Lifter
Drugtested
14 Dec 2014 Merksem
