Division,WeightClassKg,Place,Name,Team,BodyweightKg,Best3SquatKg,Best3BenchKg,Best3DeadliftKg,TotalKg,Equipment,Event,Sex,BirthDate
Boys,55.79,1,Jeremey Rodriguez,Tulia,55.52,172.37,95.25,181.44,449.06,Single-ply,SBD,M,
Boys,67.13,1,Vincent Yarbrough,Tulia,65.23,181.44,108.86,210.92,501.22,Single-ply,SBD,M,
Boys,67.13,2,Caden Peevey,Shamrock,66.22,170.1,92.99,183.7,446.79,Single-ply,SBD,M,
Boys,67.13,3,Skyler Monroe,Tulia,66.32,156.49,90.72,172.37,419.57,Single-ply,SBD,M,
Boys,67.13,4,Xander Jackson,Quanah,65.14,174.63,90.72,147.42,412.77,Single-ply,SBD,M,
Boys,67.13,5,Jasiah Castellon,Tulia,60.24,124.74,77.11,136.08,337.93,Single-ply,SBD,M,
Boys,67.13,6,Colton Benson,Clarendon,62.23,113.4,72.57,136.08,322.05,Single-ply,SBD,M,
Boys,74.84,1,Issac Salinas,Childress,70.58,183.7,106.59,179.17,469.47,Single-ply,SBD,M,
Boys,74.84,2,Daniel Martinez,Shamrock,73.75,179.17,104.33,183.7,467.2,Single-ply,SBD,M,
Boys,74.84,3,Chance Brandon,Quanah,74.84,174.63,86.18,170.1,430.91,Single-ply,SBD,M,
Boys,74.84,4,Quinten Daughtery,Quanah,74.84,158.76,90.72,181.44,430.91,Single-ply,SBD,M,
Boys,74.84,5,Kaden Vela,Memphis,71.4,138.35,106.59,174.63,419.57,Single-ply,SBD,M,
Boys,74.84,6,Luis Martinez,Shamrock,71.94,154.22,79.38,181.44,415.04,Single-ply,SBD,M,
Boys,74.84,7,Royce Rey,Tulia,70.58,124.74,86.18,185.97,396.89,Single-ply,SBD,M,
Boys,74.84,8,Cristian Mendez,Floydada,70.4,142.88,83.91,154.22,381.02,Single-ply,SBD,M,
Boys,74.84,9,Gavyn Coulter,Memphis,74.8,138.35,77.11,142.88,358.34,Single-ply,SBD,M,
Boys,74.84,10,Tye Bice,Tulia,68.58,131.54,63.5,136.08,331.12,Single-ply,SBD,M,
Boys,82.1,1,Caleb McDowell,Tulia,81.37,197.31,102.06,213.19,512.56,Single-ply,SBD,M,
Boys,82.1,2,Bobby Luna,Childress,78.93,183.7,120.2,170.1,474,Single-ply,SBD,M,
Boys,82.1,3,Lee Savage,Memphis,76.66,172.37,108.86,183.7,464.93,Single-ply,SBD,M,
Boys,82.1,4,Reese Hinsley,Floydada,79.65,161.03,77.11,158.76,396.89,Single-ply,SBD,M,
Boys,82.1,5,Davin Mays,Clarendon,77.93,136.08,86.18,170.1,392.36,Single-ply,SBD,M,
Boys,82.1,6,Ricardo Saldivar,Shamrock,80.65,136.08,65.77,145.15,347,Single-ply,SBD,M,
Boys,89.81,1,Andrew Suarez,Floydada,82.69,215.46,117.93,215.46,548.85,Single-ply,SBD,M,
Boys,89.81,2,Reid Felton,Childress,84.37,204.12,142.88,179.17,526.17,Single-ply,SBD,M,
Boys,89.81,3,David Espinoza,Memphis,85.28,183.7,102.06,183.7,469.47,Single-ply,SBD,M,
Boys,89.81,4,Laremi Nava,Quanah,89.81,181.44,83.91,181.44,446.79,Single-ply,SBD,M,
Boys,89.81,5,Brayan Hernandez,Quanah,88.45,181.44,88.45,145.15,415.04,Single-ply,SBD,M,
Boys,89.81,6,Edgar Cervera,Floydada,88.36,156.49,83.91,156.49,396.89,Single-ply,SBD,M,
Boys,99.79,1,Joe Barrera,Tulia,98.79,283.5,190.51,263.08,737.09,Single-ply,SBD,M,
Boys,99.79,2,Marcus Collins,Floydada,95.71,204.12,106.59,199.58,510.29,Single-ply,SBD,M,
Boys,99.79,3,Armando Cruz,Floydada,94.89,217.72,104.33,183.7,505.76,Single-ply,SBD,M,
Boys,99.79,4,Luke Breitschopf,Shamrock,92.44,181.44,86.18,185.97,453.59,Single-ply,SBD,M,
Boys,99.79,DQ,Jodie Ayala,Childress,98.79,,,,,Single-ply,SBD,M,
Boys,109.77,1,Zach Etheredge,Childress,105.51,204.12,129.27,219.99,553.38,Single-ply,SBD,M,
Boys,109.77,2,Juan Gonzalez,Childress,102.06,210.92,124.74,206.38,542.04,Single-ply,SBD,M,
Boys,109.77,3,Adrian Macias,Childress,105.69,185.97,124.74,179.17,489.88,Single-ply,SBD,M,
Boys,109.77,4,Jesus Sanchez,Memphis,106.32,163.29,117.93,161.03,442.25,Single-ply,SBD,M,
Boys,124.74,1,Isaiah Speir,Childress,115.03,188.24,124.74,190.51,503.49,Single-ply,SBD,M,
Boys,124.74,2,Jacinto Briones,Tulia,115.76,197.31,99.79,192.78,489.88,Single-ply,SBD,M,
Boys,124.74,DQ,Gannon Broussard,Clarendon,114.31,190.51,122.47,,,Single-ply,SBD,M,
Boys,139.71,DQ,Xathen Chasco,Tulia,125.46,170.1,129.27,,,Single-ply,SBD,M,
Boys,139.71+,1,Gavin Nazario,Clarendon,150.23,229.06,161.03,219.99,610.08,Single-ply,SBD,M,
Boys,139.71+,DQ,Wes Putman,Shamrock,140.34,249.48,,,,Single-ply,SBD,M,
